73341 661218 509
519672 498663 470
316682 168632 443
167245 19068 383
461624 658361 509
104590 7442 351
292107 749967 509
861975 792170 525
342804 822079 509
821023 571663 509
105468 939000 525
576487 48755 470
507199 99862 449
333818 670238 509
557188 416806 470
593108 725742 509
755392 736199 424
831050 187675 509
297980 714830 509
30232 396409 443
735069 505195 509
643 948340 525
935343 166219 525
667210 537285 509
537219 286618 470
790158 468660 509
633223 662585 429
152154 261904 443
937660 183796 525
270478 723485 509
661068 545164 509
441484 727554 509
422668 98400 449
422372 925982 525
744443 372927 509
347884 650872 509
730880 461891 509
14295 548743 470
642662 204855 509
173696 800835 509
937563 334237 525
802126 442206 509
231445 421163 449
213330 259784 443
273309 887416 525
108074 425781 449
887263 204775 525
75368 238828 443
309741 642462 509
431474 579805 470
333607 991651 525
518381 265234 470
758451 744364 424
685792 664079 442
34702 20154 311
303793 700594 509
670143 612677 509
863484 569062 525
391336 20243 443
849221 343579 525
861194 557382 525
274998 809869 509
803044 295082 509
234970 665135 509
886431 724134 525
924928 140257 525
996060 562293 525
310031 421313 449
566502 323353 470
894048 576860 525
298238 59502 443
966993 766365 525
603424 632324 509
510144 777381 509
337922 932609 525
720606 959319 525
149536 295392 443
668153 631662 442
895806 641272 525
275612 756568 509
630436 676916 442
944751 993638 458
991889 965288 458
973607 135937 525
479014 378964 449
875442 917761 476
173964 40374 383
124645 620944 470
938438 685742 525
473901 917399 525
204754 80304 383
408011 623221 470
91993 261145 443
617465 767371 509
834217 161504 509
795535 187193 509
173163 840400 525
280269 386347 441
405023 30149 443
965416 389520 525
2278 625815 470
462703 381522 449
852980 701085 525
897497 571216 525
288481 500729 449
840490 634250 525
928379 671337 525
266456 599312 470
912016 523633 525
417585 301534 449
582164 144447 470
910177 18381 525
463050 93095 449
302266 772510 509
41452 138889 354
582027 740246 509
309678 714956 509
85619 598962 470
944774 130027 525
62635 858317 525
252655 188723 443
878747 222556 525
811359 845915 525
569775 500299 470
5647 6849 262
53530 315239 443
739862 444747 509
385049 677223 509
697265 251746 509
20785 959659 525
178810 294032 443
810829 228483 509
428463 844257 525
150893 48701 375
470039 262749 449
40727 659988 509
854868 247962 525
121632 575959 470
799884 234034 509
7135 990780 525
313914 340530 384
668395 492674 509
379578 16905 443
855065 20774 525
431754 177824 449
873834 888967 445
618318 990586 525
518308 18578 470
992267 901946 507
316924 924136 525
10155 543722 470
248810 771660 509
478062 529064 470
338193 204526 443
405402 830910 509
571335 821600 509
869087 466341 525
411404 574157 470
27147 898326 525
974775 521269 525
897048 142269 525
413508 100157 449
679692 758371 504
67533 144763 375
337925 567684 470
385947 507873 449
772841 583457 509
507236 501542 426
946114 705159 525
981160 960544 458
676912 818158 504
896827 261160 525
566300 467197 470
808541 577287 509
459980 461847 444
942224 623338 525
146197 155893 370
706966 678005 504
525438 431641 470
166371 977290 525
717042 212163 509
1286 938633 525
69804 874876 525
502570 63096 449
781987 124075 509
60908 299355 443
581063 607527 434
995065 623907 525
315563 592760 470
687610 560976 509
467625 933886 525
880849 214402 525
350502 836721 509
496881 663587 509
647001 237487 509
739767 711389 424
948255 636067 525
36175 227638 386
305597 39778 443
733387 204321 509
27401 827404 509
499134 899476 525
810945 607933 509
766787 275843 509
805305 890108 525
250110 385556 441
973950 451736 525
958367 932030 507
396631 560525 470
984752 32810 525
731495 648188 504
792383 131735 509
838462 923594 476
345813 649262 509
208674 870303 525
492605 126937 449
391316 203109 443
973900 410940 525
366454 804250 509
496900 229188 449
457377 312829 449
881882 802194 525
963283 404494 525
20226 838181 525
65056 4994 340
958559 685254 525
